Chapter 2 バイアスなしの伝達 Unbiased transmission | 文化進化のインディヴィジュアルベーストモデル
…
特定の個人の形質はRの大かっこ表記で抽出することができる。たとえば4番目の個人の形質は次のように見ることができる：

population[4]

## [1] "B"

つぎにシミュレーションのアウトプットを格納するtibbleを用意しよう。tibbleはよりユーザーフレンドリーなdataframeで、tidyverseライブラリに含まれている。アウトプットは各世代での\(proportion\_of\_trait\_a\)の推移を記録する。アウトプットのtibbleの大きさは2列\(timesteps\)行になる。1世代につき1行で、一列目は世代数（1から\(timesteps\)まで）で、アウトプットをプロットする際に役立つ。二列目は各世代での\(proportion\_of\_trait\_a\)を格納しよう。

現時点では\(proportion\_of\_trait\_a\)が各世代でいくつになるかがわからないので、ひとまずoutputtibbleの当該列にはすべてNAを入れておこう。NAはR言語での「該当なし(Not Available)」、つまり欠測値を意味するシンボルである。NAを\(timesteps\)回リピートするにはrep()関数を使う。NAを使い、0を使わないのは、0は\(proportion\_of\_trait\_a=0\)であると誤解されかねないからで、それ自体はシミュレーションの結果全個人が形質\(B\)を有しているというあり得る結果だからである。現時点では\(proportion\_of\_trait\_a\)の値は算出されないので、値は0ではなく「存在しない」のが正しい。さらに、NAでもよいのだが、じつはRのデフォルトのNAはTRUE/FALSEの類の値が入ることを想定しており、ロジカル型(logical type)である。ここには実数(real number)が入るということを考慮に入れ、tidyverseの用意するdouble型のNAであるNA_real_を使ってみよう。

output <- tibble(timestep = 1:timesteps, proportion_of_trait_a = rep(NA_real_, timesteps))
output

## # A tibble: 200 x 2
##    timestep proportion_of_trait_a
##       <int>                 <dbl>
##  1        1                    NA
##  2        2                    NA
##  3        3                    NA
##  4        4                    NA
##  5        5                    NA
##  6        6                    NA
##  7        7                    NA
##  8        8                    NA
##  9        9                    NA
## 10       10                    NA
## # … with 190 more rows

outputをコンソールに入れてみると、proportion\_of\_trait\_aの列の型がlgl(logical型)ではなくdouble型になっていることがわかる。

NAを入力することには成功したが、考えてみると第1世代の集団の形質は既に生成しているのだから、第1世代のproportion\_of\_trait\_aの値は計算可能のはずだ。以下のコードではpopulationベクトル内の文字列"A"の数を数え上げ、population\_sizeで割ることで割合を計算している。そしてその値をoutputのテーブルのproportion\_of\_trait\_aの列の第一行目（[1]）つまり第1世代\(timestep=1\)に代入している。チャンクの2行目ではこれまでと同様、テーブルの変数名を書くことでうまくいっているか確認している。

output$proportion_of_trait_a[1] <- sum(population == "A") / population_size
output

## # A tibble: 200 x 2
##    timestep proportion_of_trait_a
##       <int>                 <dbl>
##  1        1                  0.46
##  2        2                 NA   
##  3        3                 NA   
##  4        4                 NA   
##  5        5                 NA   
##  6        6                 NA   
##  7        7                 NA   
##  8        8                 NA   
##  9        9                 NA   
## 10       10                 NA   
## # … with 190 more rows
…
Figure 2.4: バイアスなしの文化伝達が複数回試行すると異なった動態を示す

5回の独立した試行が通常の細めの線で、その平均が太めの線で描画されているはずだ。試行によっては0か1に達しているものもあり、平均はおそらくその間を行き来しているだろう。データはdataに保存されており、データの変数名を打ち込めばテーブルとして確認することができる。

data

## # A tibble: 1,000 x 3
##    run   timestep proportion_of_trait_a
##    <fct>    <dbl>                 <dbl>
##  1 1            1                  0.48
##  2 1            2                  0.53
##  3 1            3                  0.5 
##  4 1            4                  0.46
##  5 1            5                  0.46
##  6 1            6                  0.36
##  7 1            7                  0.29
##  8 1            8                  0.4 
##  9 1            9                  0.41
## 10 1           10                  0.47
## # … with 990 more rows
…
